{
  "images" : [
    {
      "idiom" : "universal",
      "scale" : "1x"
    },
    {
      "idiom" : "universal",
      "filename" : "1484250473_ic_keyboard_arrow_down_48px.png",
      "scale" : "2x"
    },
    {
      "idiom" : "universal",
      "filename" : "1484250464_ic_keyboard_arrow_down_48px.png",
      "scale" : "3x"
    }
  ],
  "info" : {
    "version" : 1,
    "author" : "xcode"
  }
}